{
  "20": {
    "8": 1250,
    "16": 666,
    "24": 434,
    "32": 333
  },
  "30": {
    "8": 909,
    "16": 434,
    "24": 294,
    "32": 222
  },
  "40": {
    "8": 588,
    "16": 294,
    "24": 196,
    "32": 147
  },
  "41": {
    "8": 588,
    "16": 294,
    "24": 196,
    "32": 147
  },
  "42": {
    "8": 294,
    "16": 147,
    "24": 98,
    "32": 74
  },
  "43": {
    "8": 59,
    "16": 29,
    "24": 20,
    "32": 15
  },
  "44": {
    "8": 6,
    "16": 3,
    "24": 2,
    "32": 2
  },
  "50": {
    "8": 400,
    "16": 196,
    "24": 131,
    "32": 99
  },
  "51": {
    "8": 400,
    "16": 196,
    "24": 131,
    "32": 99
  },
  "52": {
    "8": 200,
    "16": 98,
    "24": 65,
    "32": 50
  },
  "53": {
    "8": 40,
    "16": 20,
    "24": 13,
    "32": 10
  },
  "54": {
    "8": 4,
    "16": 2,
    "24": 1,
    "32": 1
  },
  "60": {
    "8": 263,
    "16": 131,
    "24": 87,
    "32": 65
  },
  "61": {
    "8": 263,
    "16": 131,
    "24": 87,
    "32": 65
  },
  "62": {
    "8": 131,
    "16": 65,
    "24": 43,
    "32": 33
  },
  "63": {
    "8": 26,
    "16": 13,
    "24": 9,
    "32": 6
  },
  "64": {
    "8": 3,
    "16": 1,
    "24": 1,
    "32": 1
  },
  "70": {
    "8": 175,
    "16": 87,
    "24": 58,
    "32": 43
  },
  "71": {
    "8": 175,
    "16": 87,
    "24": 58,
    "32": 43
  },
  "72": {
    "8": 87,
    "16": 43,
    "24": 29,
    "32": 22
  },
  "73": {
    "8": 18,
    "16": 9,
    "24": 6,
    "32": 4
  },
  "74": {
    "8": 2,
    "16": 1,
    "24": 1,
    "32": 1
  },
  "80": {
    "8": 117,
    "16": 58,
    "24": 39,
    "32": 29
  },
  "81": {
    "8": 117,
    "16": 58,
    "24": 39,
    "32": 29
  },
  "82": {
    "8": 58,
    "16": 29,
    "24": 20,
    "32": 15
  },
  "83": {
    "8": 11,
    "16": 6,
    "24": 4,
    "32": 3
  },
  "84": {
    "8": 1,
    "16": 1,
    "24": 1,
    "32": 1
  }
}